{
  "Actor": {
    "types": ["character", "npc"],
    "templates": {
      "base": {
        "hp": {
          "value": 10,
          "min": 0
        },
        "mp": {
          "value": 5,
          "min": 0
        },
        "stamina": {
          "value": 5,
          "min": 0
        },
        "sanity": {
          "value": 5,
          "min": 0
        },
        "lust": {
          "value": 0,
          "min": 0
        },
        "traits": {},
        "biography": ""
      }
    },
    "character": {
      "templates": ["base"],
      "name": "",
      "race": "",
      "class": "",
      "attributes": {
        "level": {
          "value": 1
        }
      },
      "stats": {
        "strength": {
          "value": 2
        },
        "body": {
          "value": 2
        },
        "agility": {
          "value": 2
        },
        "endurance": {
          "value": 2
        },
        "dexterity": {
          "value": 2
        },
        "perception": {
          "value": 2
        },
        "willpower": {
          "value": 2
        },
        "intelligence": {
          "value": 2
        },
        "charisma": {
          "value": 2
        },
        "magic": {
          "value": 2
        }
      },
      "traits": {},
      "fetishes": {},
      "skills": {
        "athleticism": {},
        "blacksmithing": {},
        "bluffing": {},
        "dancing": {},
        "gambling": {},
        "haggle": {},
        "hunting": {},
        "intimidation": {},
        "investigation": {},
        "labor": {},
        "lockpicking": {},
        "mental_strength": {},
        "persuasion": {},
        "playing_music": {},
        "reaction": {},
        "resistance": {},
        "running": {},
        "seduction": {},
        "service": {},
        "sawing": {},
        "singing": {},
        "sneaking": {},
        "stealing": {},
        "studying": {},
        "teaching": {},
        "tracking": {}
      },
      "combat": {
        "arcane_spells": {},
        "axes": {},
        "blocking": {},
        "bows": {},
        "brawling": {},
        "crossbows": {},
        "daggers": {},
        "dodging": {},
        "grappling": {},
        "halberds": {},
        "maces": {},
        "miracles": {},
        "parrying": {},
        "spears": {},
        "staffs": {},
        "swords": {},
        "throwing": {}
      },
      "sex": {
        "blowjob": {},
        "buttjob": {},
        "footjob": {},
        "handjob": {},
        "masturbation": {},
        "sex_consensual": {},
        "sex_dominant": {},
        "thighjob": {},
        "titjob": {}
      },
      "abilities": {},
      "languages": {},
      "regional": {}
    },
    "npc": {
      "templates": ["base"],
      "cr": 0
    }
  },
  "Item": {
    "types": ["item", "feature", "spell"],
    "templates": {
      "base": {
        "description": ""
      }
    },
    "item": {
      "templates": ["base"],
      "quantity": 1,
      "weight": 0,
      "formula": "d20 + @str.mod + ceil(@lvl / 2)"
    },
    "feature": {
      "templates": ["base"]
    },
    "spell": {
      "templates": ["base"],
      "spellLevel": 1
    }
  }
}
